<svg width="62" height="62" viewBox="0 0 62 62" fill="none" xmlns="http://www.w3.org/2000/svg">
<g clip-path="url(#clip0_105_76)">
<path d="M6.30031e-05 36.5806C2.38716 36.5806 4.77426 36.5806 7.22587 36.5806C7.22587 35.3548 7.22587 34.1935 7.22587 32.9677C7.54845 32.9677 7.742 32.9677 8.00006 32.9677C15.5484 32.9677 23.0968 32.9677 30.6452 32.9677C35.2259 32.9677 38.8388 30 39.742 25.5484C39.9355 24.4516 39.9355 23.2903 40.0001 22.0645C41.1614 22.0645 42.3226 22.0645 43.5484 22.0645C43.5484 26.9032 43.5484 31.6774 43.5484 36.5806C44.1291 36.5806 44.7097 36.5806 45.2259 36.5806C48.1291 36.5806 50.5807 38.7097 50.7743 41.4839C51.0323 44.4516 49.0968 46.9032 46.1291 47.4194C45.2904 47.5484 44.4517 47.4194 43.5484 47.4194C43.5484 52.3226 43.5484 57.0968 43.5484 61.9355C42.3226 61.9355 41.1614 61.9355 39.9355 61.9355C39.871 60.9677 39.871 59.9355 39.742 58.9677C39.3549 54.9677 35.9355 51.5484 32.0001 51.2258C29.8065 51.0323 27.613 51.0968 25.4194 51.0968C24.1936 51.0968 22.9678 51.0968 21.742 51.0968C21.3549 51.0968 21.1614 51.2258 21.0968 51.6129C20.0001 54.9032 18.9033 58.1936 17.8065 61.4839C17.6775 61.9355 17.4839 62.0645 17.0323 62.0645C13.5484 62.0645 10.0646 62.0645 6.51619 62.0645C7.742 58.4516 8.90329 54.8387 10.1291 51.1613C9.16135 51.1613 8.19361 51.1613 7.22587 51.1613C7.22587 49.9355 7.22587 48.7742 7.22587 47.5484C4.77426 47.5484 2.38716 47.5484 -0.0644531 47.5484C6.30031e-05 43.8064 6.30031e-05 40.1935 6.30031e-05 36.5806ZM39.9355 51.1613C39.9355 45.0323 39.9355 38.9677 39.9355 32.8387C39.8065 32.9677 39.6775 33.0323 39.613 33.0968C37.0968 35.4194 34.1291 36.5806 30.7097 36.5806C29.1614 36.5806 27.5484 36.5806 26.0001 36.5806C25.8065 36.5806 25.613 36.5806 25.4194 36.5806C25.4194 40.2581 25.4194 43.871 25.4194 47.4839C25.6775 47.4839 25.871 47.4839 26.0646 47.4839C27.6775 47.4839 29.3549 47.4839 30.9678 47.4839C33.6775 47.4839 36.0646 48.3226 38.2581 49.871C38.8388 50.2581 39.3549 50.7097 39.9355 51.1613ZM10.9033 47.4194C14.5807 47.4194 18.1291 47.4194 21.742 47.4194C21.742 43.8065 21.742 40.1935 21.742 36.5806C18.1291 36.5806 14.5162 36.5806 10.9033 36.5806C10.9033 40.1935 10.9033 43.8065 10.9033 47.4194ZM17.4194 51.0968C16.3226 51.0968 15.3549 51.0968 14.3226 51.0968C14.1936 51.0968 13.9355 51.2903 13.871 51.4839C13.5484 52.3226 13.2904 53.2258 13.0323 54.0645C12.5807 55.4839 12.0646 56.9032 11.613 58.3871C12.7097 58.3871 13.6775 58.3871 14.7097 58.3871C14.8388 58.3871 15.0968 58.1935 15.0968 58.0645C15.871 55.7419 16.6452 53.4839 17.4194 51.0968ZM7.22587 40.2581C6.00006 40.2581 4.83877 40.2581 3.67748 40.2581C3.67748 41.4839 3.67748 42.6452 3.67748 43.8065C4.90329 43.8065 6.06458 43.8065 7.22587 43.8065C7.22587 42.6452 7.22587 41.4194 7.22587 40.2581ZM43.613 43.8065C44.2581 43.8065 44.9033 43.8065 45.4839 43.8065C46.4517 43.7419 47.1613 42.9677 47.2259 42.0645C47.2904 41.2258 46.6452 40.3871 45.6775 40.2581C44.9678 40.1935 44.3226 40.2581 43.613 40.2581C43.613 41.4194 43.613 42.5806 43.613 43.8065Z" fill="#2B3990"/>
<path d="M62.0001 0C62.0001 6 62.0001 12.0645 62.0001 18.1936C60.9034 18.1936 59.8711 18.2581 58.8388 18.1936C57.7421 18.0645 56.9679 18.5161 56.2582 19.2903C53.5485 22.0645 50.7743 24.7742 48.0647 27.5484C47.9356 27.6774 47.8066 27.871 47.5485 27.9355C47.5485 24.7097 47.5485 21.5484 47.5485 18.2581C41.484 18.2581 35.4195 18.2581 29.355 18.2581C29.355 12.129 29.355 6.12903 29.355 0.0645161C40.1937 0 51.0969 0 62.0001 0ZM32.9679 14.5806C39.0324 14.5806 45.0324 14.5806 51.0969 14.5806C51.0969 16.129 51.0969 17.6129 51.0969 19.1613C51.2905 18.9677 51.484 18.8387 51.613 18.7097C52.9034 17.4194 54.1292 16.129 55.4195 14.9032C55.613 14.7097 55.9356 14.5806 56.2582 14.5806C56.9679 14.5161 57.6776 14.5806 58.3227 14.5806C58.3227 10.9032 58.3227 7.29032 58.3227 3.74194C49.8711 3.74194 41.4195 3.74194 32.9679 3.74194C32.9679 7.29032 32.9679 10.8387 32.9679 14.5806Z" fill="#2B3990"/>
<path d="M61.9355 43.8064C59.4839 43.8064 57.0322 43.8064 54.5161 43.8064C54.5161 42.6452 54.5161 41.4839 54.5161 40.2581C56.9677 40.2581 59.4193 40.2581 61.9355 40.2581C61.9355 41.4193 61.9355 42.5806 61.9355 43.8064Z" fill="#2B3990"/>
<path d="M53.0324 36.7097C52.2582 35.9355 51.4195 35.0968 50.6453 34.2581C52.3227 32.5806 54.0001 30.9032 55.6775 29.2258C56.4517 30 57.2904 30.8387 58.0646 31.6774C56.4517 33.3548 54.7098 35.0968 53.0324 36.7097Z" fill="#2B3990"/>
<path d="M55.6775 54.7097C54.0001 53.0323 52.3227 51.3548 50.6453 49.6774C51.4195 48.8387 52.2582 48.0645 53.0969 47.2258C54.7743 48.9032 56.4517 50.5806 58.1291 52.2581C57.2904 53.0968 56.4517 53.9355 55.6775 54.7097Z" fill="#2B3990"/>
<path d="M40.1292 10.8387C38.9034 10.8387 37.7421 10.8387 36.5808 10.8387C36.5808 9.67741 36.5808 8.51612 36.5808 7.29031C37.7421 7.29031 38.9034 7.29031 40.1292 7.29031C40.1292 8.4516 40.1292 9.61289 40.1292 10.8387Z" fill="#2B3990"/>
<path d="M47.4195 10.8387C46.1937 10.8387 45.0324 10.8387 43.8711 10.8387C43.8711 9.67741 43.8711 8.51612 43.8711 7.29031C45.0324 7.29031 46.1937 7.29031 47.4195 7.29031C47.4195 8.4516 47.4195 9.67741 47.4195 10.8387Z" fill="#2B3990"/>
<path d="M54.7098 10.8387C53.484 10.8387 52.3227 10.8387 51.1614 10.8387C51.1614 9.67741 51.1614 8.51612 51.1614 7.29031C52.3227 7.29031 53.484 7.29031 54.7098 7.29031C54.7098 8.4516 54.7098 9.67741 54.7098 10.8387Z" fill="#2B3990"/>
</g>
<defs>
<clipPath id="clip0_105_76">
<rect width="62" height="62" fill="white"/>
</clipPath>
</defs>
</svg>
