<svg width="55" height="55" viewBox="0 0 55 55" fill="none" xmlns="http://www.w3.org/2000/svg">
<g clip-path="url(#clip0_105_89)">
<path d="M4.94837e-06 52.9305C0.397979 52.055 1.11433 51.7366 2.06947 51.7366C3.50218 51.8162 4.93488 51.7366 6.44718 51.7366C6.44718 51.4978 6.44718 51.259 6.44718 51.0999C6.44718 46.5629 6.44718 41.9465 6.44718 37.4095C6.44718 36.2156 7.08394 35.5789 8.27786 35.5789C11.78 35.5789 15.2026 35.5789 18.7048 35.5789C18.864 35.5789 19.1028 35.5789 19.3415 35.5789C19.3415 35.3401 19.3415 35.1809 19.3415 34.9421C19.3415 32.5543 19.3415 30.0868 19.3415 27.699C19.3415 26.5051 19.9783 25.8683 21.0926 25.8683C24.6744 25.8683 28.1766 25.8683 31.7583 25.8683C31.9175 25.8683 32.1563 25.8683 32.3951 25.8683C32.3951 22.6049 32.3951 19.5007 32.3951 16.2373C32.1563 16.2373 31.9175 16.2373 31.5991 16.2373C30.3256 16.2373 29.0521 16.2373 27.7786 16.2373C26.9826 16.2373 26.4255 15.9986 26.1071 15.2822C25.7887 14.4863 26.0275 13.8495 26.5847 13.2923C30.3256 9.55137 34.0666 5.73082 37.8075 1.98987C38.2851 1.5123 38.7627 1.03473 39.2402 0.557162C40.0362 -0.159191 40.9117 -0.159191 41.6281 0.557162C45.8466 4.85528 50.0651 9.0738 54.3632 13.3719C54.9204 13.9291 55.0796 14.5658 54.7612 15.2822C54.4428 15.9986 53.8857 16.2373 53.0897 16.2373C51.5774 16.2373 50.0651 16.2373 48.4732 16.2373C48.4732 28.097 48.4732 39.877 48.4732 51.8162C48.9508 51.8162 49.4284 51.8162 49.9059 51.8162C50.9407 51.8162 52.055 51.8162 53.0897 51.8162C54.0449 51.8162 54.6816 52.2938 54.9204 53.0897C55.0796 53.8857 54.6816 54.5224 53.8061 54.9204L53.7265 55C36.2156 55 18.6252 55 1.11433 55C0.557168 54.7612 0.159195 54.3632 -0.0795898 53.8061C4.94837e-06 53.4877 4.94837e-06 53.2489 4.94837e-06 52.9305ZM45.2894 51.7366C45.2894 51.4978 45.2894 51.259 45.2894 51.0203C45.2894 38.9218 45.2894 26.903 45.2894 14.8046C45.2894 13.6107 45.9262 12.9739 47.1201 12.9739C47.8365 12.9739 48.6324 12.9739 49.508 12.9739C46.4038 9.94935 43.3792 7.00434 40.5138 4.21852C37.5687 7.08394 34.6237 9.94935 31.5195 12.9739C32.3155 12.9739 33.0318 12.9739 33.6686 12.9739C35.0217 12.9739 35.5789 13.5311 35.5789 14.9638C35.5789 26.9826 35.5789 39.081 35.5789 51.0999C35.5789 51.3386 35.5789 51.4978 35.5789 51.7366C38.8423 51.7366 42.0261 51.7366 45.2894 51.7366ZM22.6049 29.1317C22.6049 36.6932 22.6049 44.1751 22.6049 51.7366C25.8683 51.7366 29.1317 51.7366 32.3951 51.7366C32.3951 44.1751 32.3951 36.6932 32.3951 29.1317C29.1317 29.1317 25.8683 29.1317 22.6049 29.1317ZM19.3415 38.8423C16.0782 38.8423 12.8944 38.8423 9.71057 38.8423C9.71057 43.1404 9.71057 47.5181 9.71057 51.7366C12.8944 51.7366 16.0782 51.7366 19.3415 51.7366C19.3415 47.4385 19.3415 43.1404 19.3415 38.8423Z" fill="#2B3990"/>
</g>
<defs>
<clipPath id="clip0_105_89">
<rect width="55" height="55" fill="white"/>
</clipPath>
</defs>
</svg>
