<svg width="39" height="39" viewBox="0 0 39 39" fill="none" xmlns="http://www.w3.org/2000/svg">
<path d="M26.975 9.4575C25.8642 8.18939 25.252 6.56083 25.2525 4.875H20.2313V25.025C20.1925 26.1154 19.7322 27.1483 18.9471 27.906C18.1621 28.6638 17.1136 29.0873 16.0225 29.0875C13.715 29.0875 11.7975 27.2025 11.7975 24.8625C11.7975 22.0675 14.495 19.9712 17.2738 20.8325V15.6975C11.6675 14.95 6.76001 19.305 6.76001 24.8625C6.76001 30.2738 11.245 34.125 16.0063 34.125C21.1088 34.125 25.2525 29.9813 25.2525 24.8625V14.6413C27.2886 16.1035 29.7332 16.8881 32.24 16.8838V11.8625C32.24 11.8625 29.185 12.0088 26.975 9.4575Z" fill="black"/>
</svg>
