<svg width="138" height="48" viewBox="0 0 138 48" fill="none" xmlns="http://www.w3.org/2000/svg">
<g clip-path="url(#clip0_145_12)">
<path fill-rule="evenodd" clip-rule="evenodd" d="M13.6003 2.19989C14.8003 0.0998871 17.5003 -0.600113 19.7003 0.599887C21.9003 1.79989 22.7003 4.39989 21.4003 6.49989L8.4003 28.8999C7.2003 31.0999 4.4003 31.7999 2.2003 30.4999C0.000296116 29.1999 -0.699704 26.4999 0.600296 24.3999L13.6003 2.19989Z" fill="#F05825"/>
<path d="M31.9008 9.8H38.9008V13.2H39.2008C39.5008 11.7 41.1008 9.5 44.1008 9.5C45.1008 9.5 45.7008 9.6 46.1008 9.7V15.5C45.6008 15.3 44.6008 15.2 43.6008 15.2C40.4008 15.2 39.0008 17 39.0008 19.9V31.2H31.8008V9.8H31.9008Z" fill="#3C2416"/>
<path d="M39.1006 31.2004V22.4004H21.9006H4.50059C2.10059 22.4004 0.100586 24.4004 0.100586 26.8004C0.100586 28.0004 0.600586 29.1004 1.40059 29.9004C2.20059 30.7004 3.30059 31.2004 4.50059 31.2004H23.1006H39.1006Z" fill="url(#paint0_linear_145_12)"/>
<path fill-rule="evenodd" clip-rule="evenodd" d="M3.1 39.6998C3.9 39.6998 4.5 40.2998 4.5 41.3998V42.1998C4.5 43.2998 4 43.8998 3.1 43.8998C2.3 43.8998 1.8 43.2998 1.8 42.0998V41.4998C1.8 40.2998 2.3 39.6998 3.1 39.6998ZM2.5 38.2998C1 38.2998 0 39.3998 0 41.2998V42.2998C0 44.2998 0.9 45.3998 2.4 45.3998C3.5 45.3998 4.2 44.8998 4.4 44.2998H4.5V45.2998H6.2V35.7998H4.5V39.3998H4.4C4.2 38.6998 3.5 38.2998 2.5 38.2998Z" fill="#3E2414"/>
<path fill-rule="evenodd" clip-rule="evenodd" d="M13.2002 36.2998C13.2002 36.8998 13.6002 37.2998 14.3002 37.2998C15.0002 37.2998 15.4002 36.8998 15.4002 36.2998C15.4002 35.6998 15.0002 35.2998 14.3002 35.2998C13.7002 35.2998 13.2002 35.6998 13.2002 36.2998ZM13.5002 45.2998H15.2002V38.3998H13.5002V45.2998Z" fill="#3E2414"/>
<path fill-rule="evenodd" clip-rule="evenodd" d="M25.1996 39.6998C25.9996 39.6998 26.4996 40.3998 26.4996 41.3998V42.0998C26.4996 43.0998 25.9996 43.7998 25.1996 43.7998C24.3996 43.7998 23.7996 43.0998 23.7996 41.9998V41.4998C23.7996 40.3998 24.3996 39.6998 25.1996 39.6998ZM25.0996 46.4998C24.3996 46.4998 23.8996 46.1998 23.7996 45.7998H22.1996C22.2996 46.8998 23.0996 47.7998 24.9996 47.7998C26.6996 47.7998 28.1996 47.1998 28.1996 45.1998V38.3998H26.4996V39.4998H26.3996C26.1996 38.7998 25.4996 38.2998 24.4996 38.2998C22.9996 38.2998 22.0996 39.3998 22.0996 41.3998V41.9998C22.0996 44.0998 23.0996 45.0998 24.4996 45.0998C25.4996 45.0998 26.1996 44.5998 26.3996 44.0998H26.4996V44.9998C26.4996 45.9998 26.0996 46.4998 25.0996 46.4998Z" fill="#3E2414"/>
<path fill-rule="evenodd" clip-rule="evenodd" d="M35.0996 36.2998C35.0996 36.8998 35.4996 37.2998 36.1996 37.2998C36.8996 37.2998 37.2996 36.8998 37.2996 36.2998C37.2996 35.6998 36.8996 35.2998 36.1996 35.2998C35.4996 35.2998 35.0996 35.6998 35.0996 36.2998ZM35.2996 45.2998H36.9996V38.3998H35.2996V45.2998Z" fill="#3E2414"/>
<path fill-rule="evenodd" clip-rule="evenodd" d="M44.6996 38.4998H43.5996V39.8998H44.5996V43.2998C44.5996 44.6998 45.1996 45.2998 46.8996 45.2998C47.2996 45.2998 47.7996 45.1998 47.8996 45.1998V43.7998C47.7996 43.7998 47.4996 43.7998 47.2996 43.7998C46.5996 43.7998 46.3996 43.5998 46.3996 42.9998V39.8998H47.8996V38.4998H46.3996V36.7998H44.6996V38.4998Z" fill="#3E2414"/>
<path fill-rule="evenodd" clip-rule="evenodd" d="M57.0002 44.0002C56.5002 44.0002 56.0002 43.7002 56.0002 43.1002C56.0002 42.6002 56.3002 42.2002 57.0002 42.2002H58.2002V42.9002C58.2002 43.6002 57.6002 44.0002 57.0002 44.0002ZM56.4002 45.4002C57.4002 45.4002 57.9002 44.9002 58.2002 44.5002H58.3002V45.3002H60.0002V40.6002C60.0002 38.8002 58.8002 38.2002 57.2002 38.2002C55.3002 38.2002 54.5002 39.2002 54.5002 40.3002H56.2002C56.3002 39.9002 56.6002 39.6002 57.2002 39.6002C57.8002 39.6002 58.2002 39.9002 58.2002 40.5002V41.1002H56.6002C55.1002 41.1002 54.2002 41.9002 54.2002 43.2002C54.2002 44.6002 55.1002 45.4002 56.4002 45.4002Z" fill="#3E2414"/>
<path d="M68.7996 35.7998H67.0996V45.2998H68.7996V35.7998Z" fill="#3E2414"/>
<path fill-rule="evenodd" clip-rule="evenodd" d="M81.2998 45.2994H82.9998V41.0994C82.9998 40.1994 83.4998 39.7994 84.0998 39.7994C84.6998 39.7994 85.1998 40.1994 85.1998 41.0994V45.2994H86.7998V41.1994C86.7998 40.2994 87.2998 39.8994 87.8998 39.8994C88.4998 39.8994 88.9998 40.2994 88.9998 41.1994V45.3994H90.6998V40.5994C90.6998 39.1994 89.8998 38.3994 88.5998 38.3994C87.4998 38.3994 86.7998 39.0994 86.5998 39.6994H86.4998C86.2998 38.8994 85.6998 38.3994 84.6998 38.3994C83.4998 38.3994 82.9998 39.0994 82.8998 39.6994H82.9998V38.4994H81.2998V45.2994Z" fill="#3E2414"/>
<path fill-rule="evenodd" clip-rule="evenodd" d="M99.3996 41.0996C99.3996 40.1996 99.8996 39.5996 100.7 39.5996C101.5 39.5996 102 40.1996 102 41.0996V41.1996H99.3996V41.0996ZM100.7 45.3996C102.7 45.3996 103.5 44.0996 103.6 43.1996H101.9C101.8 43.5996 101.3 43.8996 100.7 43.8996C99.8996 43.8996 99.2996 43.2996 99.2996 42.4996V42.1996H103.6V41.3996C103.6 39.3996 102.4 38.0996 100.6 38.0996C98.8996 38.0996 97.5996 39.1996 97.5996 41.3996V42.0996C97.5996 44.2996 98.7996 45.3996 100.7 45.3996Z" fill="#3E2414"/>
<path fill-rule="evenodd" clip-rule="evenodd" d="M113.2 39.6994C114 39.6994 114.6 40.2994 114.6 41.3994V42.1994C114.6 43.2994 114.1 43.8994 113.2 43.8994C112.4 43.8994 111.9 43.2994 111.9 42.0994V41.4994C111.8 40.2994 112.4 39.6994 113.2 39.6994ZM112.5 38.2994C111 38.2994 110.1 39.3994 110.1 41.3994V42.3994C110.1 44.3994 111 45.4994 112.5 45.4994C113.6 45.4994 114.3 44.9994 114.5 44.3994H114.6V45.3994H116.3V35.8994H114.6V39.4994H114.5C114.2 38.6994 113.6 38.2994 112.5 38.2994Z" fill="#3E2414"/>
<path fill-rule="evenodd" clip-rule="evenodd" d="M123.3 36.2998C123.3 36.8998 123.7 37.2998 124.4 37.2998C125.1 37.2998 125.5 36.8998 125.5 36.2998C125.5 35.6998 125.1 35.2998 124.4 35.2998C123.7 35.2998 123.3 35.6998 123.3 36.2998ZM123.5 45.2998H125.2V38.3998H123.5V45.2998Z" fill="#3E2414"/>
<path fill-rule="evenodd" clip-rule="evenodd" d="M134.799 44.0002C134.299 44.0002 133.799 43.7002 133.799 43.1002C133.799 42.6002 134.099 42.2002 134.799 42.2002H135.999V42.9002C135.999 43.6002 135.399 44.0002 134.799 44.0002ZM134.199 45.4002C135.199 45.4002 135.699 44.9002 135.999 44.5002H136.099V45.3002H137.799V40.6002C137.799 38.8002 136.599 38.2002 135.099 38.2002C133.199 38.2002 132.399 39.2002 132.399 40.3002H134.099C134.199 39.9002 134.499 39.6002 135.099 39.6002C135.699 39.6002 136.099 39.9002 136.099 40.5002V41.1002H134.499C132.999 41.1002 132.099 41.9002 132.099 43.2002C131.999 44.6002 132.899 45.4002 134.199 45.4002Z" fill="#3E2414"/>
<path fill-rule="evenodd" clip-rule="evenodd" d="M54.4004 24.2004L55.5004 22.8004L60.6004 31.2004H68.7004L60.9004 19.1004L68.1004 9.90039H60.4004L54.8004 18.1004H54.4004V2.40039H47.4004V31.2004H54.4004V24.2004Z" fill="#3C2414"/>
<path fill-rule="evenodd" clip-rule="evenodd" d="M76.9004 26.9004C75.5004 26.9004 74.1004 26.1004 74.1004 24.6004C74.1004 23.2004 75.2004 22.3004 77.0004 22.3004H80.0004V24.3004C80.0004 25.9004 78.5004 26.9004 76.9004 26.9004ZM74.4004 31.7004C77.6004 31.7004 79.3004 30.2004 80.0004 28.8004H80.3004V31.2004H86.6004V17.1004C86.6004 11.4004 82.5004 9.40039 77.4004 9.40039C70.4004 9.40039 68.3004 13.0004 68.1004 16.4004H74.6004C74.6004 15.2004 75.5004 14.3004 77.2004 14.3004C78.8004 14.3004 79.9004 15.2004 79.9004 16.9004V18.8004H75.0004C70.1004 18.8004 67.4004 21.2004 67.4004 25.1004C67.5004 29.3004 70.3004 31.7004 74.4004 31.7004Z" fill="#3C2414"/>
<path fill-rule="evenodd" clip-rule="evenodd" d="M98.5004 15.1996C100.6 15.1996 102.2 16.7996 102.2 19.7996V21.5996C102.2 24.3996 100.7 25.9996 98.6004 25.9996C96.5004 25.9996 95.0004 24.3996 95.0004 21.2996V19.7996C94.9004 16.7996 96.4004 15.1996 98.5004 15.1996ZM95.6004 9.89961C90.9004 9.89961 87.9004 13.3996 87.9004 19.5996V21.7996C87.9004 27.6996 90.9004 31.1996 95.6004 31.1996C98.9004 31.1996 101.2 29.5996 101.9 27.5996H102.2V31.1996H109.1V2.59961H102.1V13.3996H101.8C101.1 11.3996 98.8004 9.89961 95.6004 9.89961Z" fill="#3C2414"/>
<path fill-rule="evenodd" clip-rule="evenodd" d="M128 26.9004C126.6 26.9004 125.2 26.1004 125.2 24.6004C125.2 23.2004 126.3 22.3004 128.1 22.3004H131V24.3004C131.1 25.9004 129.6 26.9004 128 26.9004ZM125.5 31.7004C128.7 31.7004 130.4 30.2004 131.1 28.8004H131.4V31.2004H137.7V17.1004C137.7 11.4004 133.6 9.40039 128.5 9.40039C121.5 9.40039 119.4 13.0004 119.2 16.4004H125.7C125.7 15.2004 126.6 14.3004 128.3 14.3004C129.9 14.3004 131 15.2004 131 16.9004V18.8004H126.1C121.2 18.8004 118.5 21.2004 118.5 25.1004C118.6 29.3004 121.4 31.7004 125.5 31.7004Z" fill="#3C2414"/>
<path fill-rule="evenodd" clip-rule="evenodd" d="M21.6 2.19989C20.4 0.0998871 17.7 -0.600113 15.5 0.599887C13.3 1.79989 12.5 4.39989 13.8 6.49989L26.8 28.8999C28 31.0999 30.8 31.7999 33 30.4999C35.2 29.1999 35.9 26.4999 34.6 24.3999L21.6 2.19989Z" fill="url(#paint1_linear_145_12)"/>
<path d="M117.4 9.90039H110.4V31.2004H117.4V9.90039Z" fill="#3C2414"/>
<path d="M114 7C115.933 7 117.5 5.433 117.5 3.5C117.5 1.567 115.933 0 114 0C112.067 0 110.5 1.567 110.5 3.5C110.5 5.433 112.067 7 114 7Z" fill="url(#paint2_linear_145_12)"/>
</g>
<defs>
<linearGradient id="paint0_linear_145_12" x1="0.0296754" y1="26.804" x2="39.0537" y2="26.804" gradientUnits="userSpaceOnUse">
<stop stop-color="#D02028"/>
<stop offset="0.0784037" stop-color="#BD2928"/>
<stop offset="0.4056" stop-color="#7C3123"/>
<stop offset="0.6792" stop-color="#532B1C"/>
<stop offset="0.8852" stop-color="#3C2316"/>
<stop offset="1" stop-color="#332012"/>
</linearGradient>
<linearGradient id="paint1_linear_145_12" x1="16.2532" y1="1.73499" x2="30.0568" y2="25.6447" gradientUnits="userSpaceOnUse">
<stop stop-color="#F36F26"/>
<stop offset="1" stop-color="#FEC018"/>
</linearGradient>
<linearGradient id="paint2_linear_145_12" x1="111.824" y1="0.113" x2="116.403" y2="7.3839" gradientUnits="userSpaceOnUse">
<stop stop-color="#F36F26"/>
<stop offset="1" stop-color="#FEC018"/>
</linearGradient>
<clipPath id="clip0_145_12">
<rect width="137.7" height="47.8" fill="white"/>
</clipPath>
</defs>
</svg>
